SELECT * FROM `taa_logs` 
	WHERE 	
		(`CARD` = "FN00001049" or `CARD` = "0011402331") 
	AND 
		(TIMESTAMP BETWEEN '2018-10-10 00:00:00' AND '2018-10-10 23:59:59')
=====================================================================================================================